{
    "packageDirectories": [
        {
            "path": "force-app",
            "default": true,
            "package": "svsales-sfdx",
            "versionName": "ver 0.1",
            "versionNumber": "0.1.0.NEXT"
        }
    ],
    "namespace": "",
    "sfdcLoginUrl": "https://login.salesforce.com",
    "sourceApiVersion": "47.0",
    "packageAliases": {
        "svsales-sfdx": "0Ho4M000000PAsSSAW"
    }
}